%YAML 1.1
%TAG !u! tag:unity3d.com,2011:
--- !u!114 &11400000
MonoBehaviour:
  m_ObjectHideFlags: 0
  m_CorrespondingSourceObject: {fileID: 0}
  m_PrefabInstance: {fileID: 0}
  m_PrefabAsset: {fileID: 0}
  m_GameObject: {fileID: 0}
  m_Enabled: 1
  m_EditorHideFlags: 0
  m_Script: {fileID: 11500000, guid: 8ee54936b4133e449bbf13359be938d3, type: 3}
  m_Name: TestAbility0001
  m_EditorClassIdentifier: 
  dataID: 
  abilityID: 0
  abilityName: Test Particle
  requiredLevel: 1
  abilityCooldown: 5
  abilityIcon: {fileID: 21300000, guid: 214f7e62633ee4585a55b459cc6d0f53, type: 3}
  abilityBehaviours:
  - {fileID: 11400000, guid: c9345482ac67fb346aebe31f9b89773d, type: 2}
